<svg width="64" height="62" viewBox="0 0 64 62" fill="none" xmlns="http://www.w3.org/2000/svg">
<path d="M32 0C14.8178 0 0.888916 13.8791 0.888916 31C0.888916 48.1209 14.8178 62 32 62C49.1823 62 63.1111 48.1209 63.1111 31C63.1111 13.8791 49.1823 0 32 0ZM32 58C17.1139 58 4.90325 45.9931 4.90325 31C4.90325 16.1671 16.9532 4 32 4C46.8862 4 59.0968 16.0069 59.0968 31C59.0968 45.8329 47.0469 58 32 58ZM49.7672 23.6299L27.1264 46.0089C26.5361 46.5923 25.583 46.5885 24.9975 46.0004L14.2243 35.1789C13.6388 34.5908 13.6426 33.641 14.2328 33.0576L15.3016 32.0013C15.8919 31.4179 16.845 31.4216 17.4305 32.0098L26.0834 40.7014L46.5868 20.4351C47.177 19.8517 48.1301 19.8555 48.7156 20.4436L49.7758 21.5086C50.3614 22.0968 50.3575 23.0465 49.7672 23.6299Z" fill="#A9FF01"/>
</svg>
