<svg width="39" height="39" viewBox="0 0 39 39" fill="none" xmlns="http://www.w3.org/2000/svg">
<g clip-path="url(#clip0_2195_2973)">
<path d="M19.4982 38.9964C15.6418 38.9964 11.872 37.8528 8.66558 35.7103C5.45912 33.5678 2.95999 30.5226 1.48422 26.9598C0.00844835 23.397 -0.377681 19.4766 0.374661 15.6943C1.127 11.912 2.98402 8.43776 5.71089 5.71089C8.43776 2.98402 11.912 1.127 15.6943 0.374661C19.4766 -0.377681 23.397 0.00844835 26.9598 1.48422C30.5226 2.95999 33.5678 5.45912 35.7103 8.66558C37.8528 11.872 38.9964 15.6418 38.9964 19.4982C38.9901 24.6675 36.9338 29.6233 33.2786 33.2786C29.6233 36.9338 24.6675 38.9901 19.4982 38.9964ZM19.4982 0.820026C15.8037 0.820746 12.1924 1.91697 9.12095 3.97007C6.04948 6.02317 3.65579 8.94094 2.24256 12.3544C0.829326 15.7679 0.460026 19.5238 1.18136 23.1472C1.90269 26.7706 3.68225 30.0987 6.29502 32.7107C8.90779 35.3227 12.2364 37.1013 15.86 37.8215C19.4836 38.5418 23.2394 38.1714 26.6525 36.7572C30.0655 35.343 32.9826 32.9484 35.0348 29.8763C37.087 26.8043 38.1822 23.1927 38.1818 19.4982C38.176 14.5453 36.2055 9.79693 32.7028 6.2952C29.2 2.79346 24.4511 0.824366 19.4982 0.820026Z" fill="#A9FF01"/>
<path d="M27.5763 19.9137L20.1178 14.0825C20.0138 14.007 19.8844 13.9749 19.7572 13.9929C19.6299 14.011 19.5146 14.0778 19.4356 14.1792C19.3567 14.2806 19.3202 14.4088 19.3339 14.5366C19.3476 14.6644 19.4105 14.7819 19.5092 14.8643L25.8342 19.8044H10.9937C10.8673 19.8121 10.7484 19.8677 10.6616 19.96C10.5747 20.0523 10.5264 20.1742 10.5264 20.301C10.5264 20.4277 10.5747 20.5497 10.6616 20.6419C10.7484 20.7342 10.8673 20.7899 10.9937 20.7975H25.8269L19.5073 25.7377C19.4561 25.7779 19.4133 25.8278 19.3814 25.8845C19.3494 25.9412 19.329 26.0037 19.3212 26.0684C19.3134 26.133 19.3185 26.1986 19.336 26.2613C19.3536 26.324 19.3833 26.3826 19.4235 26.4338C19.4694 26.4935 19.5285 26.5418 19.5962 26.575C19.6638 26.6082 19.7382 26.6253 19.8135 26.6251C19.9245 26.6252 20.0323 26.588 20.1196 26.5194L27.5763 20.6882C27.6358 20.6419 27.6838 20.5826 27.7169 20.5148C27.75 20.4471 27.7672 20.3727 27.7672 20.2973C27.7672 20.222 27.75 20.1476 27.7169 20.0798C27.6838 20.0121 27.6358 19.9528 27.5763 19.9065V19.9137Z" fill="#A9FF01"/>
</g>
<defs>
<clipPath id="clip0_2195_2973">
<rect width="39" height="39" fill="white"/>
</clipPath>
</defs>
</svg>
